<?xml version="1.0" encoding="UTF-8" standalone="no"?>
<svg
   xmlns:dc="http://purl.org/dc/elements/1.1/"
   xmlns:cc="http://creativecommons.org/ns#"
   xmlns:rdf="http://www.w3.org/1999/02/22-rdf-syntax-ns#"
   xmlns:svg="http://www.w3.org/2000/svg"
   xmlns="http://www.w3.org/2000/svg"
   xmlns:sodipodi="http://sodipodi.sourceforge.net/DTD/sodipodi-0.dtd"
   xmlns:inkscape="http://www.inkscape.org/namespaces/inkscape"
   width="357.04071"
   height="191.1572"
   viewBox="0 0 285.63257 152.92576"
   version="1.1"
   id="svg2"
   inkscape:version="0.91 r13725"
   sodipodi:docname="uEA01-lievre.svg">
  <metadata
     id="metadata11474">
    <rdf:RDF>
      <cc:Work
         rdf:about="">
        <dc:format>image/svg+xml</dc:format>
        <dc:type
           rdf:resource="http://purl.org/dc/dcmitype/StillImage" />
        <dc:title />
      </cc:Work>
    </rdf:RDF>
  </metadata>
  <defs
     id="defs11472" />
  <sodipodi:namedview
     pagecolor="#ffffff"
     bordercolor="#666666"
     borderopacity="1"
     objecttolerance="10"
     gridtolerance="10"
     guidetolerance="10"
     inkscape:pageopacity="0"
     inkscape:pageshadow="2"
     inkscape:window-width="1920"
     inkscape:window-height="1027"
     id="namedview11470"
     showgrid="false"
     units="in"
     fit-margin-top="40"
     fit-margin-left="10"
     fit-margin-right="10"
     fit-margin-bottom="10"
     inkscape:zoom="1.5809309"
     inkscape:cx="298.57421"
     inkscape:cy="82.151518"
     inkscape:window-x="0"
     inkscape:window-y="0"
     inkscape:window-maximized="1"
     inkscape:current-layer="svg2" />
  <path
     style="fill:#000000;stroke:#000000;stroke-width:0.0884317"
     d="m 191.71924,27.024202 c 8.0727,-0.31193 12.62911,6.27668 16.80909,11.97012 3.8228,5.26039 5.76262,11.7808 11.20608,15.7149 4.43214,2.49372 10.33509,2.5516 14.93198,5.15027 7.83763,3.75021 13.36771,11.36683 17.07321,19.07295 1.85622,5.70029 -1.56269,12.18025 -7.84513,12.68904 -5.80901,0.26937 -11.1971,1.74361 -16.9063,4.261538 -4.24279,4.29946 -6.3878,10.14408 -5.33893,15.04603 3.75366,5.18553 10.55822,4.1272 16.16642,5.36322 8.40346,1.80355 16.62424,2.41724 25.07341,4.59687 4.9577,0.84346 11.81867,-2.33579 14.69616,3.86742 -1.94863,6.15838 -20.08523,3.833 -20.08523,3.833 2.22587,1.65295 12.61207,5.18154 11.45686,8.76986 -2.57575,4.32451 -7.10005,2.02644 -13.74383,0.0918 -6.27734,-2.07425 -8.4944,-3.24735 -14.26445,-5.73325 -5.81703,-2.23988 -12.75725,-0.82564 -18.28414,-3.34862 -6.51574,-0.057 -12.62625,-3.21164 -18.72984,-5.52756 -5.03222,-1.83889 -10.10949,-3.68179 -15.20552,-6.59347 -6.5828,-3.72709 -28.49214,-3.17261 -41.36975,-6.82883 -7.4161,-2.92459 -13.81087,-7.7473 -21.5559,-9.86708 -3.74542,-0.86674 -9.08716,0.55673 -12.18706,1.95258 -6.21181,3.55349 -12.58897,8.16678 -20.211624,7.30231 -8.353456,0.79414 -17.432039,-1.27104 -25.272941,0.80038 -11.184992,1.447 -18.610498,10.58278 -26.421033,17.75239 -5.159799,4.29624 -12.063566,8.55823 -19.00692,6.24444 -5.824574,-4.9979 5.33266,-8.11659 7.876316,-11.80031 7.204379,-6.59603 13.506296,-14.10902 19.770086,-21.45162 -2.558399,-0.54963 -7.264831,4.48754 -10.997369,5.63601 -7.50321,4.38639 -15.019594,9.39071 -22.789731,12.66508 -3.521374,2.30949 -12.62086,0.12119 -6.39538,-4.35792 8.55656,-9.43958 18.626036,-17.78305 29.838008,-23.417378 6.82071,-2.53896 15.941903,-0.12584 23.567223,-1.19582 7.351218,0.82784 15.899423,-2.84105 17.05605,-10.81255 1.717536,-6.01767 3.420789,-11.90319 6.339882,-17.671 4.804798,-5.36768 -6.816429,-6.45989 -3.376912,-11.98897 3.063623,-6.00165 10.333625,-1.38454 11.764662,2.86915 2.227487,-0.64553 5.589583,-1.4862 8.166673,-2.85972 8.19134,-4.14034 15.69485,-2.69584 24.21849,-2.85576 6.21192,1.30145 12.26826,2.32399 18.69092,3.90278 7.84791,2.79053 15.55025,6.24082 22.91206,10.0364 6.55339,3.2372 13.26131,7.40343 20.14829,10.65899 6.18428,4.63581 15.45728,4.52961 18.43715,-3.55769 2.02867,-2.82647 2.8521,-5.45936 -0.99075,-6.96344 -9.18367,-5.48323 -18.42137,-12.29624 -23.39844,-22.08778 -1.56268,-4.70418 -1.05575,-12.34 5.13139,-8.14985 2.43747,0.85808 2.85463,0.62297 3.04599,0.003 0.21285,-0.68861 -0.91131,-2.59499 8.2e-4,-3.18276 z"
     id="path9208"
     inkscape:connector-curvature="0"
     sodipodi:nodetypes="cccccccccccscccccccccccccccccccccccccccccccccscc" />
</svg>
